matS/matS.sim/sim_1/behav/mm.vcd
$date
   Tue Apr 11 13:21:05 2017
$end
$version
  2016.4
$end
$timescale
  1ps
$end
$scope module Mat_mul_TB $end
$var reg 32 ! A [31:0] $end
$var reg 32 " B [31:0] $end
$var reg 1 # clk $end
$var reg 1 $ reset $end
$var reg 1 % async_reset $end
$var wire 64 & Res [63:0] $end
$var parameter 32 ' WIDTH [31:0] $end
$scope module mm $end
$var wire 32 ( A [31:0] $end
$var wire 32 ) B [31:0] $end
$var wire 1 * clk $end
$var wire 1 + reset $end
$var wire 64 & Res [63:0] $end
$var parameter 32 , WIDTH [31:0] $end
$scope module genblk1[0].genblk1[0].genblk1[0].m1 $end
$var wire 1 * clk $end
$var wire 1 + reset $end
$var wire 8 - dataa [7:0] $end
$var wire 8 . datab [7:0] $end
$var wire 16 / res [15:0] $end
$var reg 8 0 rA [7:0] $end
$var reg 8 1 rB [7:0] $end
$var integer 32 2 i $end
$var parameter 32 3 WIDTH [31:0] $end
$var parameter 32 4 MULT_LATENCY [31:0] $end
$upscope $end
$scope module genblk1[0].genblk1[0].genblk1[1].m1 $end
$var wire 1 * clk $end
$var wire 1 + reset $end
$var wire 8 5 dataa [7:0] $end
$var wire 8 6 datab [7:0] $end
$var wire 16 7 res [15:0] $end
$var reg 8 8 rA [7:0] $end
$var reg 8 9 rB [7:0] $end
$var integer 32 : i $end
$var parameter 32 ; WIDTH [31:0] $end
$var parameter 32 < MULT_LATENCY [31:0] $end
$upscope $end
$scope module genblk1[0].genblk1[1].genblk1[0].m1 $end
$var wire 1 * clk $end
$var wire 1 + reset $end
$var wire 8 = dataa [7:0] $end
$var wire 8 > datab [7:0] $end
$var wire 16 ? res [15:0] $end
$var reg 8 @ rA [7:0] $end
$var reg 8 A rB [7:0] $end
$var integer 32 B i $end
$var parameter 32 C WIDTH [31:0] $end
$var parameter 32 D MULT_LATENCY [31:0] $end
$upscope $end
$scope module genblk1[0].genblk1[1].genblk1[1].m1 $end
$var wire 1 * clk $end
$var wire 1 + reset $end
$var wire 8 E dataa [7:0] $end
$var wire 8 F datab [7:0] $end
$var wire 16 G res [15:0] $end
$var reg 8 H rA [7:0] $end
$var reg 8 I rB [7:0] $end
$var integer 32 J i $end
$var parameter 32 K WIDTH [31:0] $end
$var parameter 32 L MULT_LATENCY [31:0] $end
$upscope $end
$scope module genblk1[1].genblk1[0].genblk1[0].m1 $end
$var wire 1 * clk $end
$var wire 1 + reset $end
$var wire 8 M dataa [7:0] $end
$var wire 8 N datab [7:0] $end
$var wire 16 O res [15:0] $end
$var reg 8 P rA [7:0] $end
$var reg 8 Q rB [7:0] $end
$var integer 32 R i $end
$var parameter 32 S WIDTH [31:0] $end
$var parameter 32 T MULT_LATENCY [31:0] $end
$upscope $end
$scope module genblk1[1].genblk1[0].genblk1[1].m1 $end
$var wire 1 * clk $end
$var wire 1 + reset $end
$var wire 8 U dataa [7:0] $end
$var wire 8 V datab [7:0] $end
$var wire 16 W res [15:0] $end
$var reg 8 X rA [7:0] $end
$var reg 8 Y rB [7:0] $end
$var integer 32 Z i $end
$var parameter 32 [ WIDTH [31:0] $end
$var parameter 32 \ MULT_LATENCY [31:0] $end
$upscope $end
$scope module genblk1[1].genblk1[1].genblk1[0].m1 $end
$var wire 1 * clk $end
$var wire 1 + reset $end
$var wire 8 ] dataa [7:0] $end
$var wire 8 ^ datab [7:0] $end
$var wire 16 _ res [15:0] $end
$var reg 8 ` rA [7:0] $end
$var reg 8 a rB [7:0] $end
$var integer 32 b i $end
$var parameter 32 c WIDTH [31:0] $end
$var parameter 32 d MULT_LATENCY [31:0] $end
$upscope $end
$scope module genblk1[1].genblk1[1].genblk1[1].m1 $end
$var wire 1 * clk $end
$var wire 1 + reset $end
$var wire 8 e dataa [7:0] $end
$var wire 8 f datab [7:0] $end
$var wire 16 g res [15:0] $end
$var reg 8 h rA [7:0] $end
$var reg 8 i rB [7:0] $end
$var integer 32 j i $end
$var parameter 32 k WIDTH [31:0] $end
$var parameter 32 l MULT_LATENCY [31:0] $end
$upscope $end
$scope module genblk2[0].genblk1[0].genblk1[0].m1 $end
$var wire 1 * clk $end
$var wire 1 + reset $end
$var wire 8 m dataa [7:0] $end
$var wire 8 n datab [7:0] $end
$var wire 16 o res [15:0] $end
$var reg 8 p rA [7:0] $end
$var reg 8 q rB [7:0] $end
$var integer 32 r i $end
$var parameter 32 s WIDTH [31:0] $end
$var parameter 32 t MULT_LATENCY [31:0] $end
$upscope $end
$scope module genblk2[0].genblk1[0].genblk1[1].m1 $end
$var wire 1 * clk $end
$var wire 1 + reset $end
$var wire 8 u dataa [7:0] $end
$var wire 8 v datab [7:0] $end
$var wire 16 w res [15:0] $end
$var reg 8 x rA [7:0] $end
$var reg 8 y rB [7:0] $end
$var integer 32 z i $end
$var parameter 32 { WIDTH [31:0] $end
$var parameter 32 | MULT_LATENCY [31:0] $end
$upscope $end
$scope module genblk2[0].genblk1[1].genblk1[0].m1 $end
$var wire 1 * clk $end
$var wire 1 + reset $end
$var wire 8 m dataa [7:0] $end
$var wire 8 } datab [7:0] $end
$var wire 16 ~ res [15:0] $end
$var reg 8 !! rA [7:0] $end
$var reg 8 "! rB [7:0] $end
$var integer 32 #! i $end
$var parameter 32 $! WIDTH [31:0] $end
$var parameter 32 %! MULT_LATENCY [31:0] $end
$upscope $end
$scope module genblk2[0].genblk1[1].genblk1[1].m1 $end
$var wire 1 * clk $end
$var wire 1 + reset $end
$var wire 8 u dataa [7:0] $end
$var wire 8 &! datab [7:0] $end
$var wire 16 '! res [15:0] $end
$var reg 8 (! rA [7:0] $end
$var reg 8 )! rB [7:0] $end
$var integer 32 *! i $end
$var parameter 32 +! WIDTH [31:0] $end
$var parameter 32 ,! MULT_LATENCY [31:0] $end
$upscope $end
$scope module genblk2[1].genblk1[0].genblk1[0].m1 $end
$var wire 1 * clk $end
$var wire 1 + reset $end
$var wire 8 -! dataa [7:0] $end
$var wire 8 .! datab [7:0] $end
$var wire 16 /! res [15:0] $end
$var reg 8 0! rA [7:0] $end
$var reg 8 1! rB [7:0] $end
$var integer 32 2! i $end
$var parameter 32 3! WIDTH [31:0] $end
$var parameter 32 4! MULT_LATENCY [31:0] $end
$upscope $end
$scope module genblk2[1].genblk1[0].genblk1[1].m1 $end
$var wire 1 * clk $end
$var wire 1 + reset $end
$var wire 8 5! dataa [7:0] $end
$var wire 8 6! datab [7:0] $end
$var wire 16 7! res [15:0] $end
$var reg 8 8! rA [7:0] $end
$var reg 8 9! rB [7:0] $end
$var integer 32 :! i $end
$var parameter 32 ;! WIDTH [31:0] $end
$var parameter 32 <! MULT_LATENCY [31:0] $end
$upscope $end
$scope module genblk2[1].genblk1[1].genblk1[0].m1 $end
$var wire 1 * clk $end
$var wire 1 + reset $end
$var wire 8 -! dataa [7:0] $end
$var wire 8 =! datab [7:0] $end
$var wire 16 >! res [15:0] $end
$var reg 8 ?! rA [7:0] $end
$var reg 8 @! rB [7:0] $end
$var integer 32 A! i $end
$var parameter 32 B! WIDTH [31:0] $end
$var parameter 32 C! MULT_LATENCY [31:0] $end
$upscope $end
$scope module genblk2[1].genblk1[1].genblk1[1].m1 $end
$var wire 1 * clk $end
$var wire 1 + reset $end
$var wire 8 5! dataa [7:0] $end
$var wire 8 D! datab [7:0] $end
$var wire 16 E! res [15:0] $end
$var reg 8 F! rA [7:0] $end
$var reg 8 G! rB [7:0] $end
$var integer 32 H! i $end
$var parameter 32 I! WIDTH [31:0] $end
$var parameter 32 J! MULT_LATENCY [31:0] $end
$upscope $end
$upscope $end
$upscope $end
$enddefinitions $end
#0
$dumpvars
b1000000000000000000000001 !
b0 !!
b1000000100000001100000100 "
b0 "!
0#
b100 #!
0$
b1000 $!
0%
b11 %!
b10000000100000001000000010 &
b1 &!
b100000 '
b0 '!
b1000000000000000000000001 (
b0 (!
b1000000100000001100000100 )
b0 )!
0*
b100 *!
0+
b1000 +!
b1000 ,
b11 ,!
b1 -
b1 -!
b1 .
b1 .!
b0 /
b0 /!
b0 0
b0 0!
b0 1
b0 1!
b100 2
b100 2!
b1000 3
b1000 3!
b11 4
b11 4!
b0 5
b1 5!
b11 6
b0 6!
b0 7
b0 7!
b0 8
b0 8!
b0 9
b0 9!
b100 :
b100 :!
b1000 ;
b1000 ;!
b11 <
b11 <!
b1 =
b0 =!
b10 >
b0 >!
b0 ?
b0 ?!
b0 @
b0 @!
b0 A
b100 A!
b100 B
b1000 B!
b1000 C
b11 C!
b11 D
b1 D!
b0 E
b0 E!
b100 F
b0 F!
b0 G
b0 G!
b0 H
b100 H!
b0 I
b1000 I!
b100 J
b11 J!
b1000 K
b11 L
b0 M
b1 N
b0 O
b0 P
b0 Q
b100 R
b1000 S
b11 T
b1 U
b11 V
b0 W
b0 X
b0 Y
b100 Z
b1000 [
b11 \
b0 ]
b10 ^
b0 _
b0 `
b0 a
b100 b
b1000 c
b11 d
b1 e
b100 f
b0 g
b0 h
b0 i
b100 j
b1000 k
b11 l
b1 m
b1 n
b0 o
b0 p
b0 q
b100 r
b1000 s
b11 t
b1 u
b0 v
b0 w
b0 x
b0 y
b100 z
b1000 {
b11 |
b0 }
b0 ~
$end
#5000
b1 !!
b0 "!
1#
b11 #!
b1 (!
b1 )!
1*
b11 *!
b1 0
b1 0!
b1 1
b1 1!
b11 2
b11 2!
b0 8
b1 8!
b11 9
b0 9!
b11 :
b11 :!
b1 ?!
b1 @
b0 @!
b10 A
b11 A!
b11 B
b1 F!
b1 G!
b0 H
b11 H!
b100 I
b11 J
b0 P
b1 Q
b11 R
b1 X
b11 Y
b11 Z
b0 `
b10 a
b11 b
b1 h
b100 i
b11 j
b1 p
b1 q
b11 r
b1 x
b0 y
b11 z
#10000
0#
0%
0*
#15000
b1 !!
b0 "!
1#
b11 #!
b1 (!
b1 )!
1*
b11 *!
b1 0
b1 0!
b1 1
b1 1!
b11 2
b11 2!
b0 8
b1 8!
b11 9
b0 9!
b11 :
b11 :!
b1 ?!
b1 @
b0 @!
b10 A
b11 A!
b11 B
b1 F!
b1 G!
b0 H
b11 H!
b100 I
b11 J
b0 P
b1 Q
b11 R
b1 X
b11 Y
b11 Z
b0 `
b10 a
b11 b
b1 h
b100 i
b11 j
b1 p
b1 q
b11 r
b1 x
b0 y
b11 z
#20000
0#
0%
0*
#25000
b1 !!
b0 "!
1#
b11 #!
b1 (!
b1 )!
1*
b11 *!
b1 0
b1 0!
b1 1
b1 1!
b11 2
b11 2!
b0 8
b1 8!
b11 9
b0 9!
b11 :
b11 :!
b1 ?!
b1 @
b0 @!
b10 A
b11 A!
b11 B
b1 F!
b1 G!
b0 H
b11 H!
b100 I
b11 J
b0 P
b1 Q
b11 R
b1 X
b11 Y
b11 Z
b0 `
b10 a
b11 b
b1 h
b100 i
b11 j
b1 p
b1 q
b11 r
b1 x
b0 y
b11 z
#30000
0#
0%
0*
#35000
b1 !!
b0 "!
1#
b11 #!
b1 (!
b1 )!
1*
b11 *!
b1 0
b1 0!
b1 1
b1 1!
b11 2
b11 2!
b0 8
b1 8!
b11 9
b0 9!
b11 :
b11 :!
b1 ?!
b1 @
b0 @!
b10 A
b11 A!
b11 B
b1 F!
b1 G!
b0 H
b11 H!
b100 I
b11 J
b0 P
b1 Q
b11 R
b1 X
b11 Y
b11 Z
b0 `
b10 a
b11 b
b1 h
b100 i
b11 j
b1 p
b1 q
b11 r
b1 x
b0 y
b11 z
#40000
0#
0%
0*
#45000
b1 !!
b0 "!
1#
b11 #!
b11000000110000001100000011 &
b1 '!
b1 (!
b1 )!
1*
b11 *!
b100 -!
b1 /
b1 /!
b1 0
b1 0!
b1 1
b1 1!
b11 2
b11 2!
b101 5!
b0 8
b1 8!
b11 9
b0 9!
b11 :
b11 :!
b10 ?
b1 ?!
b1 @
b0 @!
b10 A
b11 A!
b11 B
b1 E!
b1 F!
b1 G!
b0 H
b11 H!
b100 I
b11 J
b0 P
b1 Q
b11 R
b11 W
b1 X
b11 Y
b11 Z
b0 `
b10 a
b11 b
b100 g
b1 h
b100 i
b11 j
b10 m
b1 o
b1 p
b1 q
b11 r
b11 u
b1 x
b0 y
b11 z
#50000
0#
0%
0*
#55000
b10 !!
b0 "!
1#
b11 #!
b11 (!
b1 )!
1*
b11 *!
b1 0
b100 0!
b1 1
b1 1!
b11 2
b11 2!
b0 8
b101 8!
b11 9
b0 9!
b11 :
b11 :!
b100 ?!
b1 @
b0 @!
b10 A
b11 A!
b11 B
b101 F!
b1 G!
b0 H
b11 H!
b100 I
b11 J
b0 P
b1 Q
b11 R
b1 X
b11 Y
b11 Z
b0 `
b10 a
b11 b
b1 h
b100 i
b11 j
b10 p
b1 q
b11 r
b11 x
b0 y
b11 z
#60000
0#
0%
0*
#65000
b10 !!
b0 "!
1#
b11 #!
b11 (!
b1 )!
1*
b11 *!
b1 0
b100 0!
b1 1
b1 1!
b11 2
b11 2!
b0 8
b101 8!
b11 9
b0 9!
b11 :
b11 :!
b100 ?!
b1 @
b0 @!
b10 A
b11 A!
b11 B
b101 F!
b1 G!
b0 H
b11 H!
b100 I
b11 J
b0 P
b1 Q
b11 R
b1 X
b11 Y
b11 Z
b0 `
b10 a
b11 b
b1 h
b100 i
b11 j
b10 p
b1 q
b11 r
b11 x
b0 y
b11 z
#70000
0#
0%
0*
#75000
b10 !!
b0 "!
1#
b11 #!
b11 (!
b1 )!
1*
b11 *!
b1 0
b100 0!
b1 1
b1 1!
b11 2
b11 2!
b0 8
b101 8!
b11 9
b0 9!
b11 :
b11 :!
b100 ?!
b1 @
b0 @!
b10 A
b11 A!
b11 B
b101 F!
b1 G!
b0 H
b11 H!
b100 I
b11 J
b0 P
b1 Q
b11 R
b1 X
b11 Y
b11 Z
b0 `
b10 a
b11 b
b1 h
b100 i
b11 j
b10 p
b1 q
b11 r
b11 x
b0 y
b11 z
#80000
0#
0%
0*
#85000
b10 !!
b0 "!
1#
b11 #!
b11 (!
b1 )!
1*
b11 *!
b1 0
b100 0!
b1 1
b1 1!
b11 2
b11 2!
b0 8
b101 8!
b11 9
b0 9!
b11 :
b11 :!
b100 ?!
b1 @
b0 @!
b10 A
b11 A!
b11 B
b101 F!
b1 G!
b0 H
b11 H!
b100 I
b11 J
b0 P
b1 Q
b11 R
b1 X
b11 Y
b11 Z
b0 `
b10 a
b11 b
b1 h
b100 i
b11 j
b10 p
b1 q
b11 r
b11 x
b0 y
b11 z
#90000
0#
0%
0*
#95000
b10 !!
b0 "!
1#
b11 #!
b100000001010000011000000111 &
b11 '!
b11 (!
b1 )!
1*
b11 *!
b100 /!
b1 0
b100 0!
b1 1
b1 1!
b11 2
b11 2!
b0 8
b101 8!
b11 9
b0 9!
b11 :
b11 :!
b100 ?!
b1 @
b0 @!
b10 A
b11 A!
b11 B
b101 E!
b101 F!
b1 G!
b0 H
b11 H!
b100 I
b11 J
b0 P
b1 Q
b11 R
b1 X
b11 Y
b11 Z
b0 `
b10 a
b11 b
b1 h
b100 i
b11 j
b10 o
b10 p
b1 q
b11 r
b11 x
b0 y
b11 z
#100000
0#
0%
0*
#105000
b10 !!
b0 "!
1#
b11 #!
b11 (!
b1 )!
1*
b11 *!
b1 0
b100 0!
b1 1
b1 1!
b11 2
b11 2!
b0 8
b101 8!
b11 9
b0 9!
b11 :
b11 :!
b100 ?!
b1 @
b0 @!
b10 A
b11 A!
b11 B
b101 F!
b1 G!
b0 H
b11 H!
b100 I
b11 J
b0 P
b1 Q
b11 R
b1 X
b11 Y
b11 Z
b0 `
b10 a
b11 b
b1 h
b100 i
b11 j
b10 p
b1 q
b11 r
b11 x
b0 y
b11 z
#110000
0#
0%
0*
#115000
b10 !!
b0 "!
1#
b11 #!
b11 (!
b1 )!
1*
b11 *!
b1 0
b100 0!
b1 1
b1 1!
b11 2
b11 2!
b0 8
b101 8!
b11 9
b0 9!
b11 :
b11 :!
b100 ?!
b1 @
b0 @!
b10 A
b11 A!
b11 B
b101 F!
b1 G!
b0 H
b11 H!
b100 I
b11 J
b0 P
b1 Q
b11 R
b1 X
b11 Y
b11 Z
b0 `
b10 a
b11 b
b1 h
b100 i
b11 j
b10 p
b1 q
b11 r
b11 x
b0 y
b11 z
#120000
0#
0%
0*
#125000
b10 !!
b0 "!
1#
b11 #!
b11 (!
b1 )!
1*
b11 *!
b1 0
b100 0!
b1 1
b1 1!
b11 2
b11 2!
b0 8
b101 8!
b11 9
b0 9!
b11 :
b11 :!
b100 ?!
b1 @
b0 @!
b10 A
b11 A!
b11 B
b101 F!
b1 G!
b0 H
b11 H!
b100 I
b11 J
b0 P
b1 Q
b11 R
b1 X
b11 Y
b11 Z
b0 `
b10 a
b11 b
b1 h
b100 i
b11 j
b10 p
b1 q
b11 r
b11 x
b0 y
b11 z
#130000
0#
0%
0*
#135000
b10 !!
b0 "!
1#
b11 #!
b11 (!
b1 )!
1*
b11 *!
b1 0
b100 0!
b1 1
b1 1!
b11 2
b11 2!
b0 8
b101 8!
b11 9
b0 9!
b11 :
b11 :!
b100 ?!
b1 @
b0 @!
b10 A
b11 A!
b11 B
b101 F!
b1 G!
b0 H
b11 H!
b100 I
b11 J
b0 P
b1 Q
b11 R
b1 X
b11 Y
b11 Z
b0 `
b10 a
b11 b
b1 h
b100 i
b11 j
b10 p
b1 q
b11 r
b11 x
b0 y
b11 z
#140000
0#
0%
0*
#145000
b10 !!
b0 "!
1#
b11 #!
b11 (!
b1 )!
1*
b11 *!
b1 0
b100 0!
b1 1
b1 1!
b11 2
b11 2!
b0 8
b101 8!
b11 9
b0 9!
b11 :
b11 :!
b100 ?!
b1 @
b0 @!
b10 A
b11 A!
b11 B
b101 F!
b1 G!
b0 H
b11 H!
b100 I
b11 J
b0 P
b1 Q
b11 R
b1 X
b11 Y
b11 Z
b0 `
b10 a
b11 b
b1 h
b100 i
b11 j
b10 p
b1 q
b11 r
b11 x
b0 y
b11 z
#150000
0#
0%
0*
#155000
b10 !!
b0 "!
1#
b11 #!
b11 (!
b1 )!
1*
b11 *!
b1 0
b100 0!
b1 1
b1 1!
b11 2
b11 2!
b0 8
b101 8!
b11 9
b0 9!
b11 :
b11 :!
b100 ?!
b1 @
b0 @!
b10 A
b11 A!
b11 B
b101 F!
b1 G!
b0 H
b11 H!
b100 I
b11 J
b0 P
b1 Q
b11 R
b1 X
b11 Y
b11 Z
b0 `
b10 a
b11 b
b1 h
b100 i
b11 j
b10 p
b1 q
b11 r
b11 x
b0 y
b11 z
#160000
0#
0%
0*
#165000
b10 !!
b0 "!
1#
b11 #!
b11 (!
b1 )!
1*
b11 *!
b1 0
b100 0!
b1 1
b1 1!
b11 2
b11 2!
b0 8
b101 8!
b11 9
b0 9!
b11 :
b11 :!
b100 ?!
b1 @
b0 @!
b10 A
b11 A!
b11 B
b101 F!
b1 G!
b0 H
b11 H!
b100 I
b11 J
b0 P
b1 Q
b11 R
b1 X
b11 Y
b11 Z
b0 `
b10 a
b11 b
b1 h
b100 i
b11 j
b10 p
b1 q
b11 r
b11 x
b0 y
b11 z
#170000
0#
0%
0*
#175000
b10 !!
b0 "!
1#
b11 #!
b11 (!
b1 )!
1*
b11 *!
b1 0
b100 0!
b1 1
b1 1!
b11 2
b11 2!
b0 8
b101 8!
b11 9
b0 9!
b11 :
b11 :!
b100 ?!
b1 @
b0 @!
b10 A
b11 A!
b11 B
b101 F!
b1 G!
b0 H
b11 H!
b100 I
b11 J
b0 P
b1 Q
b11 R
b1 X
b11 Y
b11 Z
b0 `
b10 a
b11 b
b1 h
b100 i
b11 j
b10 p
b1 q
b11 r
b11 x
b0 y
b11 z
#180000
0#
0%
0*
#185000
b10 !!
b0 "!
1#
b11 #!
b11 (!
b1 )!
1*
b11 *!
b1 0
b100 0!
b1 1
b1 1!
b11 2
b11 2!
b0 8
b101 8!
b11 9
b0 9!
b11 :
b11 :!
b100 ?!
b1 @
b0 @!
b10 A
b11 A!
b11 B
b101 F!
b1 G!
b0 H
b11 H!
b100 I
b11 J
b0 P
b1 Q
b11 R
b1 X
b11 Y
b11 Z
b0 `
b10 a
b11 b
b1 h
b100 i
b11 j
b10 p
b1 q
b11 r
b11 x
b0 y
b11 z
#190000
0#
0%
0*
#195000
b10 !!
b0 "!
1#
b11 #!
b11 (!
b1 )!
1*
b11 *!
b1 0
b100 0!
b1 1
b1 1!
b11 2
b11 2!
b0 8
b101 8!
b11 9
b0 9!
b11 :
b11 :!
b100 ?!
b1 @
b0 @!
b10 A
b11 A!
b11 B
b101 F!
b1 G!
b0 H
b11 H!
b100 I
b11 J
b0 P
b1 Q
b11 R
b1 X
b11 Y
b11 Z
b0 `
b10 a
b11 b
b1 h
b100 i
b11 j
b10 p
b1 q
b11 r
b11 x
b0 y
b11 z
#200000
0#
0%
0*
#205000
b10 !!
b0 "!
1#
b11 #!
b11 (!
b1 )!
1*
b11 *!
b1 0
b100 0!
b1 1
b1 1!
b11 2
b11 2!
b0 8
b101 8!
b11 9
b0 9!
b11 :
b11 :!
b100 ?!
b1 @
b0 @!
b10 A
b11 A!
b11 B
b101 F!
b1 G!
b0 H
b11 H!
b100 I
b11 J
b0 P
b1 Q
b11 R
b1 X
b11 Y
b11 Z
b0 `
b10 a
b11 b
b1 h
b100 i
b11 j
b10 p
b1 q
b11 r
b11 x
b0 y
b11 z
#210000
0#
0%
0*
#215000
b10 !!
b0 "!
1#
b11 #!
b11 (!
b1 )!
1*
b11 *!
b1 0
b100 0!
b1 1
b1 1!
b11 2
b11 2!
b0 8
b101 8!
b11 9
b0 9!
b11 :
b11 :!
b100 ?!
b1 @
b0 @!
b10 A
b11 A!
b11 B
b101 F!
b1 G!
b0 H
b11 H!
b100 I
b11 J
b0 P
b1 Q
b11 R
b1 X
b11 Y
b11 Z
b0 `
b10 a
b11 b
b1 h
b100 i
b11 j
b10 p
b1 q
b11 r
b11 x
b0 y
b11 z
#220000
0#
0%
0*
#225000
b10 !!
b0 "!
1#
b11 #!
b11 (!
b1 )!
1*
b11 *!
b1 0
b100 0!
b1 1
b1 1!
b11 2
b11 2!
b0 8
b101 8!
b11 9
b0 9!
b11 :
b11 :!
b100 ?!
b1 @
b0 @!
b10 A
b11 A!
b11 B
b101 F!
b1 G!
b0 H
b11 H!
b100 I
b11 J
b0 P
b1 Q
b11 R
b1 X
b11 Y
b11 Z
b0 `
b10 a
b11 b
b1 h
b100 i
b11 j
b10 p
b1 q
b11 r
b11 x
b0 y
b11 z
#230000
0#
0%
0*
#235000
b10 !!
b0 "!
1#
b11 #!
b11 (!
b1 )!
1*
b11 *!
b1 0
b100 0!
b1 1
b1 1!
b11 2
b11 2!
b0 8
b101 8!
b11 9
b0 9!
b11 :
b11 :!
b100 ?!
b1 @
b0 @!
b10 A
b11 A!
b11 B
b101 F!
b1 G!
b0 H
b11 H!
b100 I
b11 J
b0 P
b1 Q
b11 R
b1 X
b11 Y
b11 Z
b0 `
b10 a
b11 b
b1 h
b100 i
b11 j
b10 p
b1 q
b11 r
b11 x
b0 y
b11 z
#240000
0#
0%
0*
#245000
b10 !!
b0 "!
1#
b11 #!
b11 (!
b1 )!
1*
b11 *!
b1 0
b100 0!
b1 1
b1 1!
b11 2
b11 2!
b0 8
b101 8!
b11 9
b0 9!
b11 :
b11 :!
b100 ?!
b1 @
b0 @!
b10 A
b11 A!
b11 B
b101 F!
b1 G!
b0 H
b11 H!
b100 I
b11 J
b0 P
b1 Q
b11 R
b1 X
b11 Y
b11 Z
b0 `
b10 a
b11 b
b1 h
b100 i
b11 j
b10 p
b1 q
b11 r
b11 x
b0 y
b11 z
#250000
0#
0%
0*
#255000
b10 !!
b0 "!
1#
b11 #!
b11 (!
b1 )!
1*
b11 *!
b1 0
b100 0!
b1 1
b1 1!
b11 2
b11 2!
b0 8
b101 8!
b11 9
b0 9!
b11 :
b11 :!
b100 ?!
b1 @
b0 @!
b10 A
b11 A!
b11 B
b101 F!
b1 G!
b0 H
b11 H!
b100 I
b11 J
b0 P
b1 Q
b11 R
b1 X
b11 Y
b11 Z
b0 `
b10 a
b11 b
b1 h
b100 i
b11 j
b10 p
b1 q
b11 r
b11 x
b0 y
b11 z
#260000
0#
0%
0*
#265000
b10 !!
b0 "!
1#
b11 #!
b11 (!
b1 )!
1*
b11 *!
b1 0
b100 0!
b1 1
b1 1!
b11 2
b11 2!
b0 8
b101 8!
b11 9
b0 9!
b11 :
b11 :!
b100 ?!
b1 @
b0 @!
b10 A
b11 A!
b11 B
b101 F!
b1 G!
b0 H
b11 H!
b100 I
b11 J
b0 P
b1 Q
b11 R
b1 X
b11 Y
b11 Z
b0 `
b10 a
b11 b
b1 h
b100 i
b11 j
b10 p
b1 q
b11 r
b11 x
b0 y
b11 z
#270000
0#
0%
0*
#275000
b10 !!
b0 "!
1#
b11 #!
b11 (!
b1 )!
1*
b11 *!
b1 0
b100 0!
b1 1
b1 1!
b11 2
b11 2!
b0 8
b101 8!
b11 9
b0 9!
b11 :
b11 :!
b100 ?!
b1 @
b0 @!
b10 A
b11 A!
b11 B
b101 F!
b1 G!
b0 H
b11 H!
b100 I
b11 J
b0 P
b1 Q
b11 R
b1 X
b11 Y
b11 Z
b0 `
b10 a
b11 b
b1 h
b100 i
b11 j
b10 p
b1 q
b11 r
b11 x
b0 y
b11 z
#280000
0#
0%
0*
#285000
b10 !!
b0 "!
1#
b11 #!
b11 (!
b1 )!
1*
b11 *!
b1 0
b100 0!
b1 1
b1 1!
b11 2
b11 2!
b0 8
b101 8!
b11 9
b0 9!
b11 :
b11 :!
b100 ?!
b1 @
b0 @!
b10 A
b11 A!
b11 B
b101 F!
b1 G!
b0 H
b11 H!
b100 I
b11 J
b0 P
b1 Q
b11 R
b1 X
b11 Y
b11 Z
b0 `
b10 a
b11 b
b1 h
b100 i
b11 j
b10 p
b1 q
b11 r
b11 x
b0 y
b11 z
#290000
0#
0%
0*
#295000
b10 !!
b0 "!
1#
b11 #!
b11 (!
b1 )!
1*
b11 *!
b1 0
b100 0!
b1 1
b1 1!
b11 2
b11 2!
b0 8
b101 8!
b11 9
b0 9!
b11 :
b11 :!
b100 ?!
b1 @
b0 @!
b10 A
b11 A!
b11 B
b101 F!
b1 G!
b0 H
b11 H!
b100 I
b11 J
b0 P
b1 Q
b11 R
b1 X
b11 Y
b11 Z
b0 `
b10 a
b11 b
b1 h
b100 i
b11 j
b10 p
b1 q
b11 r
b11 x
b0 y
b11 z
#300000
0#
0%
0*
#305000
b10 !!
b0 "!
1#
b11 #!
b11 (!
b1 )!
1*
b11 *!
b1 0
b100 0!
b1 1
b1 1!
b11 2
b11 2!
b0 8
b101 8!
b11 9
b0 9!
b11 :
b11 :!
b100 ?!
b1 @
b0 @!
b10 A
b11 A!
b11 B
b101 F!
b1 G!
b0 H
b11 H!
b100 I
b11 J
b0 P
b1 Q
b11 R
b1 X
b11 Y
b11 Z
b0 `
b10 a
b11 b
b1 h
b100 i
b11 j
b10 p
b1 q
b11 r
b11 x
b0 y
b11 z
#310000
0#
0%
0*
#315000
b10 !!
b0 "!
1#
b11 #!
b11 (!
b1 )!
1*
b11 *!
b1 0
b100 0!
b1 1
b1 1!
b11 2
b11 2!
b0 8
b101 8!
b11 9
b0 9!
b11 :
b11 :!
b100 ?!
b1 @
b0 @!
b10 A
b11 A!
b11 B
b101 F!
b1 G!
b0 H
b11 H!
b100 I
b11 J
b0 P
b1 Q
b11 R
b1 X
b11 Y
b11 Z
b0 `
b10 a
b11 b
b1 h
b100 i
b11 j
b10 p
b1 q
b11 r
b11 x
b0 y
b11 z
#320000
0#
0%
0*
#325000
b10 !!
b0 "!
1#
b11 #!
b11 (!
b1 )!
1*
b11 *!
b1 0
b100 0!
b1 1
b1 1!
b11 2
b11 2!
b0 8
b101 8!
b11 9
b0 9!
b11 :
b11 :!
b100 ?!
b1 @
b0 @!
b10 A
b11 A!
b11 B
b101 F!
b1 G!
b0 H
b11 H!
b100 I
b11 J
b0 P
b1 Q
b11 R
b1 X
b11 Y
b11 Z
b0 `
b10 a
b11 b
b1 h
b100 i
b11 j
b10 p
b1 q
b11 r
b11 x
b0 y
b11 z
#330000
0#
0%
0*
#335000
b10 !!
b0 "!
1#
b11 #!
b11 (!
b1 )!
1*
b11 *!
b1 0
b100 0!
b1 1
b1 1!
b11 2
b11 2!
b0 8
b101 8!
b11 9
b0 9!
b11 :
b11 :!
b100 ?!
b1 @
b0 @!
b10 A
b11 A!
b11 B
b101 F!
b1 G!
b0 H
b11 H!
b100 I
b11 J
b0 P
b1 Q
b11 R
b1 X
b11 Y
b11 Z
b0 `
b10 a
b11 b
b1 h
b100 i
b11 j
b10 p
b1 q
b11 r
b11 x
b0 y
b11 z
#340000
0#
0%
0*
#345000
b10 !!
b0 "!
1#
b11 #!
b11 (!
b1 )!
1*
b11 *!
b1 0
b100 0!
b1 1
b1 1!
b11 2
b11 2!
b0 8
b101 8!
b11 9
b0 9!
b11 :
b11 :!
b100 ?!
b1 @
b0 @!
b10 A
b11 A!
b11 B
b101 F!
b1 G!
b0 H
b11 H!
b100 I
b11 J
b0 P
b1 Q
b11 R
b1 X
b11 Y
b11 Z
b0 `
b10 a
b11 b
b1 h
b100 i
b11 j
b10 p
b1 q
b11 r
b11 x
b0 y
b11 z
#350000
0#
0%
0*
#355000
b10 !!
b0 "!
1#
b11 #!
b11 (!
b1 )!
1*
b11 *!
b1 0
b100 0!
b1 1
b1 1!
b11 2
b11 2!
b0 8
b101 8!
b11 9
b0 9!
b11 :
b11 :!
b100 ?!
b1 @
b0 @!
b10 A
b11 A!
b11 B
b101 F!
b1 G!
b0 H
b11 H!
b100 I
b11 J
b0 P
b1 Q
b11 R
b1 X
b11 Y
b11 Z
b0 `
b10 a
b11 b
b1 h
b100 i
b11 j
b10 p
b1 q
b11 r
b11 x
b0 y
b11 z
